Manual Basico da Linguagem R - 11 Lendo dados
…
Rows: 403 Columns: 19
── Column specification ────────────────────────────────────────────────────────
Delimiter: ","
chr  (3): location, gender, frame
dbl (16): id, chol, stab.glu, hdl, ratio, glyhb, age, height, weight, bp.1s,...

ℹ Use `spec()` to retrieve the full column specification for this data.
ℹ Specify the column types or set `show_col_types = FALSE` to quiet this message.

Para mostrar a tibble basta digitar no console o nome da tibble:

diabetes

# A tibble: 403 × 19
      id  chol stab.glu   hdl ratio glyhb location     age gender height weight
   <dbl> <dbl>    <dbl> <dbl> <dbl> <dbl> <chr>      <dbl> <chr>   <dbl>  <dbl>
 1  1000   203       82    56  3.60  4.31 Buckingham    46 female     62    121
 2  1001   165       97    24  6.90  4.44 Buckingham    29 female     64    218
 3  1002   228       92    37  6.20  4.64 Buckingham    58 female     61    256
 4  1003    78       93    12  6.5   4.63 Buckingham    67 male       67    119
 5  1005   249       90    28  8.90  7.72 Buckingham    64 male       68    183
 6  1008   248       94    69  3.60  4.81 Buckingham    34 male       71    190
 7  1011   195       92    41  4.80  4.84 Buckingham    30 male       69    191
 8  1015   227       75    44  5.20  3.94 Buckingham    37 male       59    170
 9  1016   177       87    49  3.60  4.84 Buckingham    45 male       69    166
10  1022   263       89    40  6.60  5.78 Buckingham    55 female     63    202
# ℹ 393 more rows
# ℹ 8 more variables: frame <chr>, bp.1s <dbl>, bp.1d <dbl>, bp.2s <dbl>,
#   bp.2d <dbl>, waist <dbl>, hip <dbl>, time.ppn <dbl>
…
