Manual Basico da Linguagem R - 12 Manipulando dados
…
[1] 13.5

12.2.5 Criando novas variáveis com mutate()

É frequente a necessidade de modificar ou criar novas variáveis no processo de análise de dados. Uma situação comum é a necessidade de transformarmos a unidade de medida de libras para peso, de milhas para quilômetros, de horas para minutos etc.

No dataset mpg a medida da distância percorrida é dada em milhas. Podemos usar a função mutate() do pacote dplyr que faz parte do tidyverse para criar uma nova variável com a medida em quilômetros. Veja no código abaixo como fazer isso.

library(dplyr)
library(ggplot2) # necessária para poder ter acesso ao dataset mpg
mutate(cty.km = cty*1.609344, mpg) 

# A tibble: 234 × 12
   manufacturer model      displ  year   cyl trans drv     cty   hwy fl    class
   <chr>        <chr>      <dbl> <int> <int> <chr> <chr> <int> <int> <chr> <chr>
 1 audi         a4           1.8  1999     4 auto… f        18    29 p     comp…
 2 audi         a4           1.8  1999     4 manu… f        21    29 p     comp…
 3 audi         a4           2    2008     4 manu… f        20    31 p     comp…
 4 audi         a4           2    2008     4 auto… f        21    30 p     comp…
 5 audi         a4           2.8  1999     6 auto… f        16    26 p     comp…
 6 audi         a4           2.8  1999     6 manu… f        18    26 p     comp…
 7 audi         a4           3.1  2008     6 auto… f        18    27 p     comp…
 8 audi         a4 quattro   1.8  1999     4 manu… 4        18    26 p     comp…
 9 audi         a4 quattro   1.8  1999     4 auto… 4        16    25 p     comp…
10 audi         a4 quattro   2    2008     4 manu… 4        20    28 p     comp…
# ℹ 224 more rows
# ℹ 1 more variable: cty.km <dbl>
…
# Definir sementes aleatórias para garantir a reprodutibilidade
set.seed(20)

# Criar uma tibble com o nome df_sexo
df_sexo <- tibble(id = 1:n_pessoas,
                  sexo = sample(c("Masculino", "Feminino", "Outro", "Não definido"), n_pessoas, replace = TRUE),
                  idade = round(rnorm(n_pessoas, mean = media_idade, sd = desvio_padrao), 0))

print(df_sexo)

# A tibble: 100 × 3
      id sexo         idade
   <int> <chr>        <dbl>
 1     1 Feminino        51
 2     2 Outro           40
 3     3 Outro           42
 4     4 Não definido    53
 5     5 Feminino        47
 6     6 Masculino       41
 7     7 Feminino        53
 8     8 Masculino       36
 9     9 Feminino        32
10    10 Feminino        44
# ℹ 90 more rows
…
