Manual Basico da Linguagem R - 14 Análises Estatísticas
…
Muitas vezes antes de algumas análises, teremos de fazer uma transformação em nosso data frame (ou tibble), transformando o data frame do tipo wide em long como explicado no capítulo do pacote tidyr @ref(tidyr).

# carregando o pacote tidyr
library(tidyr)

# criando um data frame do tipo long
result.long <- pivot_longer(data = result,
                            cols = c("controle", "experimental"),
                            names_to = "grupo", 
                            values_to = "scores")
result.long

# A tibble: 24 × 2
   grupo        scores
   <chr>         <dbl>
 1 controle         21
 2 experimental     26
 3 controle         28
 4 experimental     27
 5 controle         24
 6 experimental     23
 7 controle         23
 8 experimental     25
 9 controle         23
10 experimental     25
# ℹ 14 more rows
…
A função glance() computa as estatísticas do modelo, tais como r^2, sigma, p-values, AIC e BIC.

glance(modelo1)

# A tibble: 1 × 12
  r.squared adj.r.squared sigma statistic  p.value    df logLik   AIC   BIC
      <dbl>         <dbl> <dbl>     <dbl>    <dbl> <dbl>  <dbl> <dbl> <dbl>
1     0.638         0.636  2.57      408. 4.74e-53     1  -552. 1109. 1120.
# ℹ 3 more variables: deviance <dbl>, df.residual <int>, nobs <int>

Com a função augment(), adicionamos colunas aos dados originais que foram modelados. Isso inclui previsões, resíduos e atribuições de cluster.

augment(modelo1, data=mpg)

# A tibble: 234 × 17
   manufacturer model      displ  year   cyl trans drv     cty   hwy fl    class
   <chr>        <chr>      <dbl> <int> <int> <chr> <chr> <int> <int> <chr> <chr>
 1 audi         a4           1.8  1999     4 auto… f        18    29 p     comp…
 2 audi         a4           1.8  1999     4 manu… f        21    29 p     comp…
 3 audi         a4           2    2008     4 manu… f        20    31 p     comp…
 4 audi         a4           2    2008     4 auto… f        21    30 p     comp…
 5 audi         a4           2.8  1999     6 auto… f        16    26 p     comp…
 6 audi         a4           2.8  1999     6 manu… f        18    26 p     comp…
 7 audi         a4           3.1  2008     6 auto… f        18    27 p     comp…
 8 audi         a4 quattro   1.8  1999     4 manu… 4        18    26 p     comp…
 9 audi         a4 quattro   1.8  1999     4 auto… 4        16    25 p     comp…
10 audi         a4 quattro   2    2008     4 manu… 4        20    28 p     comp…
# ℹ 224 more rows
# ℹ 6 more variables: .fitted <dbl>, .resid <dbl>, .hat <dbl>, .sigma <dbl>,
#   .cooksd <dbl>, .std.resid <dbl>
…
